material _Translucent_Glass_Tinted_1
{
   technique
   {
      pass
      {
         scene_blend alpha_blend
         depth_check on
         depth_write off
         diffuse 1 1 1 0.0
         texture_unit
         {
            texture Translucent_Glass_Tinted.jpg
         }
      }
   }
}

