material Material__2
{
   technique
   {
      pass
      {
         diffuse 0.0196078431372549 0.0196078431372549 0.0196078431372549 1.0
         ambient 0.0196078431372549 0.0196078431372549 0.0196078431372549 1.0
      }
   }
}

material Material71
{
   technique
   {
      pass
      {
         diffuse 0.505882352941176 0.0 0.0 1.0
         ambient 0.505882352941176 0.0 0.0 1.0
      }
   }
}

material Sonic_Eye1
{
   technique
   {
      pass
      {
         scene_blend alpha_blend
         depth_check on
         depth_write off
         diffuse 1 1 1 1.0
         texture_unit
         {
            texture STX_EYE2.PNG
         }
      }
   }
}

material Color_006
{
   technique
   {
      pass
      {
         diffuse 0.337254901960784 0.337254901960784 0.337254901960784 1.0
         ambient 0.337254901960784 0.337254901960784 0.337254901960784 1.0
      }
   }
}

material Material69
{
   technique
   {
      pass
      {
         diffuse 0.282352941176471 0.741176470588235 0.129411764705882 1.0
         ambient 0.282352941176471 0.741176470588235 0.129411764705882 1.0
      }
   }
}

material Material70
{
   technique
   {
      pass
      {
         diffuse 0.0 0.0980392156862745 0.572549019607843 1.0
         ambient 0.0 0.0980392156862745 0.572549019607843 1.0
      }
   }
}

material _Charcoal_
{
   technique
   {
      pass
      {
         diffuse 0.137254901960784 0.137254901960784 0.137254901960784 1.0
         ambient 0.137254901960784 0.137254901960784 0.137254901960784 1.0
      }
   }
}

material Color_001
{
   technique
   {
      pass
      {
         diffuse 0.886274509803922 0.886274509803922 0.886274509803922 1.0
         ambient 0.886274509803922 0.886274509803922 0.886274509803922 1.0
      }
   }
}

material Sonic_White1
{
   technique
   {
      pass
      {
         diffuse 0.925490196078431 0.925490196078431 0.925490196078431 1.0
         ambient 0.925490196078431 0.925490196078431 0.925490196078431 1.0
      }
   }
}

material _Beige_1
{
   technique
   {
      pass
      {
         diffuse 0.827450980392157 0.741176470588235 0.564705882352941 1.0
         ambient 0.827450980392157 0.741176470588235 0.564705882352941 1.0
      }
   }
}

material SketchupDefault
{
   technique
   {
      pass
      {
         diffuse 1.0 1.0 1.0
         ambient 1.0 1.0 1.0
      }
   }
}

material SketchupDefault_Back
{
   technique
   {
      pass
      {
         diffuse 0.670588235294118 0.690196078431373 0.8
         ambient 0.670588235294118 0.690196078431373 0.8
      }
   }
}
