material _CorrogateShiny_5
{
   technique
   {
      pass
      {
         diffuse 1 1 1 1.0
         texture_unit
         {
            texture leg385_web_orizz.jpg
         }
      }
   }
}

material _CorrogateShiny_12
{
   technique
   {
      pass
      {
         diffuse 1 1 1 1.0
         texture_unit
         {
            texture CorrogateShiny.jpg
         }
      }
   }
}

material Black
{
   technique
   {
      pass
      {
         diffuse 0.0 0.0 0.0 1.0
         ambient 0.0 0.0 0.0 1.0
      }
   }
}

material Material31
{
   technique
   {
      pass
      {
         diffuse 1 1 1 1.0
         texture_unit
         {
            texture Metal_Corrogated_Shiny.jpg
         }
      }
   }
}

material 0020_Red
{
   technique
   {
      pass
      {
         diffuse 1.0 0.0 0.0 1.0
         ambient 1.0 0.0 0.0 1.0
      }
   }
}

material Color_002
{
   technique
   {
      pass
      {
         diffuse 0.776470588235294 0.776470588235294 0.776470588235294 1.0
         ambient 0.776470588235294 0.776470588235294 0.776470588235294 1.0
      }
   }
}

material Gray8
{
   technique
   {
      pass
      {
         diffuse 0.266666666666667 0.266666666666667 0.266666666666667 1.0
         ambient 0.266666666666667 0.266666666666667 0.266666666666667 1.0
      }
   }
}

material Material27
{
   technique
   {
      pass
      {
         diffuse 0.862745098039216 0.862745098039216 0.862745098039216 1.0
         ambient 0.862745098039216 0.862745098039216 0.862745098039216 1.0
      }
   }
}

material LightGrey
{
   technique
   {
      pass
      {
         diffuse 0.827450980392157 0.827450980392157 0.827450980392157 1.0
         ambient 0.827450980392157 0.827450980392157 0.827450980392157 1.0
      }
   }
}

material Material28
{
   technique
   {
      pass
      {
         diffuse 0.427450980392157 0.427450980392157 0.427450980392157 1.0
         ambient 0.427450980392157 0.427450980392157 0.427450980392157 1.0
      }
   }
}

material DimGray
{
   technique
   {
      pass
      {
         diffuse 0.411764705882353 0.411764705882353 0.411764705882353 1.0
         ambient 0.411764705882353 0.411764705882353 0.411764705882353 1.0
      }
   }
}

material Material32
{
   technique
   {
      pass
      {
         diffuse 0.0 0.8 0.0 1.0
         ambient 0.0 0.8 0.0 1.0
      }
   }
}

material SketchupDefault
{
   technique
   {
      pass
      {
         diffuse 1.0 1.0 1.0
         ambient 1.0 1.0 1.0
      }
   }
}

material SketchupDefault_Back
{
   technique
   {
      pass
      {
         diffuse 0.670588235294118 0.690196078431373 0.8
         ambient 0.670588235294118 0.690196078431373 0.8
      }
   }
}
